// Jest Snapshot v1, https://goo.gl/fbAQLP

exports[`Design management design presentation component renders empty state when no image provided 1`] = `
<div
  class="d-flex flex-column h-100 mh-100 position-relative"
>
  <!---->
   
  <!---->
</div>
`;

exports[`Design management design presentation component renders image and overlay when image provided 1`] = `
<div
  class="d-flex flex-column h-100 mh-100 position-relative"
>
  <design-image-stub
    image="test.jpg"
    name="test"
  />
   
  <design-overlay-stub
    dimensions="[object Object]"
    notes=""
    position="[object Object]"
  />
</div>
`;
